^D:\SABOTEUR FINAL\SABOTEUR\BIN\RELEASE\WIN32\ACTIONCARD.OBJ|D:\SABOTEUR FINAL\SABOTEUR\BIN\RELEASE\WIN32\BOARD.OBJ|D:\SABOTEUR FINAL\SABOTEUR\BIN\RELEASE\WIN32\CARDDECK.OBJ|D:\SABOTEUR FINAL\SABOTEUR\BIN\RELEASE\WIN32\GAME.OBJ|D:\SABOTEUR FINAL\SABOTEUR\BIN\RELEASE\WIN32\GRAPHIC.OBJ|D:\SABOTEUR FINAL\SABOTEUR\BIN\RELEASE\WIN32\MAIN.OBJ|D:\SABOTEUR FINAL\SABOTEUR\BIN\RELEASE\WIN32\PATHCARD.OBJ|D:\SABOTEUR FINAL\SABOTEUR\BIN\RELEASE\WIN32\PLAYER.OBJ
D:\SABOTEUR FINAL\SFML\LIB\SFML-GRAPHICS-D.LIB
D:\SABOTEUR FINAL\SFML\LIB\SFML-WINDOW-D.LIB
D:\SABOTEUR FINAL\SFML\LIB\SFML-SYSTEM-D.LIB
D:\SABOTEUR FINAL\SFML\LIB\SFML-NETWORK-D.LIB
D:\SABOTEUR FINAL\SFML\LIB\SFML-AUDIO-D.LIB
D:\SABOTEUR FINAL\SABOTEUR\DEBUG\DLL.LIB
C:\PROGRAM FILES (X86)\WINDOWS KITS\10\LIB\10.0.17134.0\UM\X86\KERNEL32.LIB
C:\PROGRAM FILES (X86)\WINDOWS KITS\10\LIB\10.0.17134.0\UM\X86\USER32.LIB
C:\PROGRAM FILES (X86)\WINDOWS KITS\10\LIB\10.0.17134.0\UM\X86\GDI32.LIB
C:\PROGRAM FILES (X86)\WINDOWS KITS\10\LIB\10.0.17134.0\UM\X86\WINSPOOL.LIB
C:\PROGRAM FILES (X86)\WINDOWS KITS\10\LIB\10.0.17134.0\UM\X86\COMDLG32.LIB
C:\PROGRAM FILES (X86)\WINDOWS KITS\10\LIB\10.0.17134.0\UM\X86\ADVAPI32.LIB
C:\PROGRAM FILES (X86)\WINDOWS KITS\10\LIB\10.0.17134.0\UM\X86\SHELL32.LIB
C:\PROGRAM FILES (X86)\WINDOWS KITS\10\LIB\10.0.17134.0\UM\X86\OLE32.LIB
C:\PROGRAM FILES (X86)\WINDOWS KITS\10\LIB\10.0.17134.0\UM\X86\OLEAUT32.LIB
C:\PROGRAM FILES (X86)\WINDOWS KITS\10\LIB\10.0.17134.0\UM\X86\UUID.LIB
C:\PROGRAM FILES (X86)\WINDOWS KITS\10\LIB\10.0.17134.0\UM\X86\ODBC32.LIB
C:\PROGRAM FILES (X86)\WINDOWS KITS\10\LIB\10.0.17134.0\UM\X86\ODBCCP32.LIB
D:\SABOTEUR FINAL\SABOTEUR\BIN\RELEASE\WIN32\ACTIONCARD.OBJ
D:\SABOTEUR FINAL\SABOTEUR\BIN\RELEASE\WIN32\BOARD.OBJ
D:\SABOTEUR FINAL\SABOTEUR\BIN\RELEASE\WIN32\CARDDECK.OBJ
D:\SABOTEUR FINAL\SABOTEUR\BIN\RELEASE\WIN32\GAME.OBJ
D:\SABOTEUR FINAL\SABOTEUR\BIN\RELEASE\WIN32\GRAPHIC.OBJ
D:\SABOTEUR FINAL\SABOTEUR\BIN\RELEASE\WIN32\MAIN.OBJ
D:\SABOTEUR FINAL\SABOTEUR\BIN\RELEASE\WIN32\PATHCARD.OBJ
D:\SABOTEUR FINAL\SABOTEUR\BIN\RELEASE\WIN32\PLAYER.OBJ
C:\WINDOWS\GLOBALIZATION\SORTING\SORTDEFAULT.NLS
C:\PROGRAM FILES (X86)\MICROSOFT VISUAL STUDIO\2017\COMMUNITY\VC\TOOLS\MSVC\14.15.26726\BIN\HOSTX86\X86\C2.DLL
C:\PROGRAM FILES (X86)\MICROSOFT VISUAL STUDIO\2017\COMMUNITY\VC\TOOLS\MSVC\14.15.26726\LIB\X86\MSVCPRT.LIB
C:\PROGRAM FILES (X86)\MICROSOFT VISUAL STUDIO\2017\COMMUNITY\VC\TOOLS\MSVC\14.15.26726\LIB\X86\MSVCRT.LIB
C:\PROGRAM FILES (X86)\MICROSOFT VISUAL STUDIO\2017\COMMUNITY\VC\TOOLS\MSVC\14.15.26726\LIB\X86\OLDNAMES.LIB
C:\PROGRAM FILES (X86)\MICROSOFT VISUAL STUDIO\2017\COMMUNITY\VC\TOOLS\MSVC\14.15.26726\LIB\X86\VCRUNTIME.LIB
C:\PROGRAM FILES (X86)\WINDOWS KITS\10\LIB\10.0.17134.0\UCRT\X86\UCRT.LIB
C:\PROGRAM FILES (X86)\MICROSOFT VISUAL STUDIO\2017\COMMUNITY\VC\TOOLS\MSVC\14.15.26726\BIN\HOSTX86\X86\1033\LINKUI.DLL
C:\PROGRAM FILES (X86)\WINDOWS KITS\10\BIN\10.0.17134.0\X86\RC.EXE
C:\PROGRAM FILES (X86)\MICROSOFT VISUAL STUDIO\2017\COMMUNITY\VC\TOOLS\MSVC\14.15.26726\BIN\HOSTX86\X86\CVTRES.EXE
C:\WINDOWS\SYSTEM32\TZRES.DLL
^D:\PROJECTS\ELEMENTE MODERNE C++ - NEW\SABOTEUR - EXPANSION\SABOTEUR\BIN\RELEASE\WIN32\ACTIONCARD.OBJ|D:\PROJECTS\ELEMENTE MODERNE C++ - NEW\SABOTEUR - EXPANSION\SABOTEUR\BIN\RELEASE\WIN32\BOARD.OBJ|D:\PROJECTS\ELEMENTE MODERNE C++ - NEW\SABOTEUR - EXPANSION\SABOTEUR\BIN\RELEASE\WIN32\CARDDECK.OBJ|D:\PROJECTS\ELEMENTE MODERNE C++ - NEW\SABOTEUR - EXPANSION\SABOTEUR\BIN\RELEASE\WIN32\GAME.OBJ|D:\PROJECTS\ELEMENTE MODERNE C++ - NEW\SABOTEUR - EXPANSION\SABOTEUR\BIN\RELEASE\WIN32\GRAPHIC.OBJ|D:\PROJECTS\ELEMENTE MODERNE C++ - NEW\SABOTEUR - EXPANSION\SABOTEUR\BIN\RELEASE\WIN32\MAIN.OBJ|D:\PROJECTS\ELEMENTE MODERNE C++ - NEW\SABOTEUR - EXPANSION\SABOTEUR\BIN\RELEASE\WIN32\PATHCARD.OBJ|D:\PROJECTS\ELEMENTE MODERNE C++ - NEW\SABOTEUR - EXPANSION\SABOTEUR\BIN\RELEASE\WIN32\PLAYER.OBJ
D:\PROJECTS\ELEMENTE MODERNE C++ - NEW\SABOTEUR - EXPANSION\SFML\LIB\SFML-GRAPHICS-D.LIB
D:\PROJECTS\ELEMENTE MODERNE C++ - NEW\SABOTEUR - EXPANSION\SFML\LIB\SFML-WINDOW-D.LIB
D:\PROJECTS\ELEMENTE MODERNE C++ - NEW\SABOTEUR - EXPANSION\SFML\LIB\SFML-SYSTEM-D.LIB
D:\PROJECTS\ELEMENTE MODERNE C++ - NEW\SABOTEUR - EXPANSION\SFML\LIB\SFML-NETWORK-D.LIB
D:\PROJECTS\ELEMENTE MODERNE C++ - NEW\SABOTEUR - EXPANSION\SFML\LIB\SFML-AUDIO-D.LIB
D:\PROJECTS\ELEMENTE MODERNE C++ - NEW\SABOTEUR - EXPANSION\SABOTEUR\DEBUG\DLL.LIB
C:\PROGRAM FILES (X86)\WINDOWS KITS\10\LIB\10.0.17134.0\UM\X86\KERNEL32.LIB
C:\PROGRAM FILES (X86)\WINDOWS KITS\10\LIB\10.0.17134.0\UM\X86\USER32.LIB
C:\PROGRAM FILES (X86)\WINDOWS KITS\10\LIB\10.0.17134.0\UM\X86\GDI32.LIB
C:\PROGRAM FILES (X86)\WINDOWS KITS\10\LIB\10.0.17134.0\UM\X86\WINSPOOL.LIB
C:\PROGRAM FILES (X86)\WINDOWS KITS\10\LIB\10.0.17134.0\UM\X86\COMDLG32.LIB
C:\PROGRAM FILES (X86)\WINDOWS KITS\10\LIB\10.0.17134.0\UM\X86\ADVAPI32.LIB
C:\PROGRAM FILES (X86)\WINDOWS KITS\10\LIB\10.0.17134.0\UM\X86\SHELL32.LIB
C:\PROGRAM FILES (X86)\WINDOWS KITS\10\LIB\10.0.17134.0\UM\X86\OLE32.LIB
C:\PROGRAM FILES (X86)\WINDOWS KITS\10\LIB\10.0.17134.0\UM\X86\OLEAUT32.LIB
C:\PROGRAM FILES (X86)\WINDOWS KITS\10\LIB\10.0.17134.0\UM\X86\UUID.LIB
C:\PROGRAM FILES (X86)\WINDOWS KITS\10\LIB\10.0.17134.0\UM\X86\ODBC32.LIB
C:\PROGRAM FILES (X86)\WINDOWS KITS\10\LIB\10.0.17134.0\UM\X86\ODBCCP32.LIB
D:\PROJECTS\ELEMENTE MODERNE C++ - NEW\SABOTEUR - EXPANSION\SABOTEUR\BIN\RELEASE\WIN32\ACTIONCARD.OBJ
D:\PROJECTS\ELEMENTE MODERNE C++ - NEW\SABOTEUR - EXPANSION\SABOTEUR\BIN\RELEASE\WIN32\BOARD.OBJ
D:\PROJECTS\ELEMENTE MODERNE C++ - NEW\SABOTEUR - EXPANSION\SABOTEUR\BIN\RELEASE\WIN32\CARDDECK.OBJ
D:\PROJECTS\ELEMENTE MODERNE C++ - NEW\SABOTEUR - EXPANSION\SABOTEUR\BIN\RELEASE\WIN32\GAME.OBJ
D:\PROJECTS\ELEMENTE MODERNE C++ - NEW\SABOTEUR - EXPANSION\SABOTEUR\BIN\RELEASE\WIN32\GRAPHIC.OBJ
D:\PROJECTS\ELEMENTE MODERNE C++ - NEW\SABOTEUR - EXPANSION\SABOTEUR\BIN\RELEASE\WIN32\MAIN.OBJ
D:\PROJECTS\ELEMENTE MODERNE C++ - NEW\SABOTEUR - EXPANSION\SABOTEUR\BIN\RELEASE\WIN32\PATHCARD.OBJ
D:\PROJECTS\ELEMENTE MODERNE C++ - NEW\SABOTEUR - EXPANSION\SABOTEUR\BIN\RELEASE\WIN32\PLAYER.OBJ
C:\WINDOWS\GLOBALIZATION\SORTING\SORTDEFAULT.NLS
C:\PROGRAM FILES (X86)\MICROSOFT VISUAL STUDIO\2017\COMMUNITY\VC\TOOLS\MSVC\14.13.26128\BIN\HOSTX86\X86\C2.DLL
C:\PROGRAM FILES (X86)\MICROSOFT VISUAL STUDIO\2017\COMMUNITY\VC\TOOLS\MSVC\14.13.26128\LIB\X86\MSVCPRT.LIB
C:\PROGRAM FILES (X86)\MICROSOFT VISUAL STUDIO\2017\COMMUNITY\VC\TOOLS\MSVC\14.13.26128\LIB\X86\MSVCRT.LIB
C:\PROGRAM FILES (X86)\MICROSOFT VISUAL STUDIO\2017\COMMUNITY\VC\TOOLS\MSVC\14.13.26128\LIB\X86\OLDNAMES.LIB
C:\PROGRAM FILES (X86)\MICROSOFT VISUAL STUDIO\2017\COMMUNITY\VC\TOOLS\MSVC\14.13.26128\LIB\X86\VCRUNTIME.LIB
C:\PROGRAM FILES (X86)\WINDOWS KITS\10\LIB\10.0.17134.0\UCRT\X86\UCRT.LIB
C:\PROGRAM FILES (X86)\MICROSOFT VISUAL STUDIO\2017\COMMUNITY\VC\TOOLS\MSVC\14.13.26128\BIN\HOSTX86\X86\1033\LINKUI.DLL
C:\PROGRAM FILES (X86)\WINDOWS KITS\10\BIN\10.0.17134.0\X86\RC.EXE
C:\PROGRAM FILES (X86)\MICROSOFT VISUAL STUDIO\2017\COMMUNITY\VC\TOOLS\MSVC\14.13.26128\BIN\HOSTX86\X86\CVTRES.EXE
C:\WINDOWS\SYSTEM32\TZRES.DLL
C:\PROGRAM FILES (X86)\MICROSOFT VISUAL STUDIO\2017\COMMUNITY\VC\TOOLS\MSVC\14.13.26128\BIN\HOSTX86\X86\VCTIP.EXE
